{
  "gitlab_workhorse": {
    "secret_token": "pXT5l+7uTcJ8wCXmSJzh1O6rkgGbm0dRPECMqMSg/II="
  },
  "gitlab_shell": {
    "secret_token": "0669de54e0410ceab5dc7d4c1bbb5b1433ddde568bb5f212e04cd1abb0e36dd87527b82a1b4e99c1a774cb47021e81186404d344150892bc47e88cc37a3d2777"
  },
  "gitlab_rails": {
    "secret_key_base": "8fb33ffacbfd2dcac0c2ce44e84cc508ae6bd6835cd8cf1b0e1d3839734f7a2194414a2993d8025a8f9bad77c9be9db51583daeec18e9db6a94dae939d993d7a",
    "db_key_base": "46360024d810d87a23701c22df128a1d4ed357fc633d8e4af50ea80d418088316a54527daea7a5d06ba04e483a91fca68157d3e656913291f0915186a80c4c2d",
    "otp_key_base": "67d5e52f57bb9c57a480b3cba176ae9d353109f39fffbfb32c1aa651e1efcbbba3beb31390b34f291f05de49dd553113887f67ed82bf587431c626250eacb186",
    "openid_connect_signing_key": "-----BEGIN RSA PRIVATE KEY-----\nMIIJKAIBAAKCAgEA3YSBJMa97iivNzhZUOo9PuCi9Vu2wjVRKMSET+dELjx15HR6\niLpzeQ7+2Tc16MiISaNbHyyt/wcrQZW1piQ3mq9tHJyC6s2mQydkUuPQilUOn61W\nhs/kOmXbHxyfzNqeqOka52Vfo6WwsQqmSWOeNKpnza1Nz0py0PNJeA7mJ0yFBc2f\nqO4eEU6MNV2idvea1LbhrS9K8VDtm+t6YKWhIk0X1vJZrkxvB6RoTmauUIPqI3Sc\nF0/FxILJghEP7V5De+krb24GIDgmaGatl3vc0rBI8OnmUfSsSmpRbVtdc5kMY40F\nGjyzRoZebnVQLnp3znt7wY7IBn4kt/8RB62Zk4iQmB80aJzrxgaX8R7pCSAT03xP\nZPoQVBZlQiRyu3PTNCzP6m134g9zxML4nOZZz3rSJYYrHn830+S+wxTh9VjxCI2h\nAJsRqnLLgWGVmHxXscuti8PFFEDFAC+AFdYTMv/g4vI8F8j9XRVX8KJrw2bXYoC9\nK1J2l/COHVYp8J7ULumQL+hACiIA4AxPG5rq41FKQaG4IOokfH12tKroe3kwX9/l\n+H/8YJFQlEUWMh5BS618He6qnG8BsvfJRjcBgQPMyozNkRBM9RkoiAVRi7MOnPV9\notvHoAiRSn3jU//bQljdhZqWGldg6JlfNGUGzRdoA0d7zN80rzadNhkk/TECAwEA\nAQKCAgEAzqHEidat4tOmpf71KcpmuRl4SSF1OHHdtAakWZij+/FAE4wnpRUvk9RO\nG7cpnWw53V75J/pYkBVS30nUeRc9mxha0p6YbIjKt8euCLgjlnZDPuXFWdngziyn\nGr1rvv6Lk4pmI0Vn0lJDoNILTVgUgpIWZEBt3ZhXw9u9Q7W6MRxq1X/6l+0OtRwt\nI7alTw4nKpcxqof8A2B3VMNyk2bNCR8axtGooDMCOwG8nq2fmtGCffJPjFtIYseR\nSre5wLT2hEZ70uSx6CoYgbiN40mSMiJo1/mHdBmlAYFtVXItmSBB8zbfdJr8rCO5\nQJZD5ictTLnZNjOHGK9gdxYB/8SLBNzKxNO4l+CYs88ProYk5Ohs5ISNSxX2vfu5\nMdvSXDpxmcj5S2lENEGyYaRYLXggjFn6S0E66ENY3oZb0P0DvEkNzsHx8KqxWmM3\nIjjb8CL94u+QIWM0uBoORBZLMoMfmut03mWS4wNLjhB8r6O2dwPQAyMjheW/5K+V\nmnET63iWqgyr0HPOKk4rWn80+MWTRBLZpHPzgfy+WH+PeaDtXYd3JWmeKstvPnpt\nFAxhot7OiStXqza8e3wcBycQiNckY5aofY0s4PZOMVv5uZbh/YXHF0qFXj+UHIeY\nc3xbWlcH9eYNszLKVwNIGxO/BfpnLiDXv1E2F3cy0BjdXyJfK2UCggEBAPBw7OP/\nhnVQHHvT/Dp76oy2lxZZdJVczU18XeqeYakULx/bkT2ub0/MVPfMbqyaBXpttc1I\nAeuz3YHuotySzJyB39fZZMN81XaDaMxnL8Z8JiGsyIan4iMAUGKjtGjDiOCm0JR+\n9tgD2aDAdZrmOsio6cWndCNgENZ06GEAj+6YbtSV1J93coNNd5l6YHgVmegeJXkd\nlYlpmPXH6VPurrs9eL4VBy5soD4j7qqG0jINb97Fgf9pumd57JAYANODhMn/6Vof\nSkaYvEIPlUwz/DEi+f/ZW4q1vxyXEF5oARBH8sNhvbd1qnpmzCmt7qDpctQw6ukq\nSVIuo0jbCsFyo+sCggEBAOvaGQtrkzWfGk+Iu7YihpGl65FKXdfl//AwR3R5zWDx\ndmXddiqoodA65JYyNREbyMSnVQuJdixAzFd0btNwjt9O3opeRHC0ahlZhd/sx/c/\nKhqYLpT/ol+88oxP6J0YZYMhjuYqRYcME1lpPq89BtOYGYAKjSGJr0aT7aTyYkpF\n+2xCryNiwxxgQ8iqj+Jj4UCcy/sCZZ8ZPyvw7763Cg6yAQu/1JbWMOwXH/eo70hx\n88tkqw73pBrjMGSAuYZCv6xK++H4tdrHxFUVwCntPyPl6W4Q0VXxU/f8z3ll+yh7\nyQhJust0yMRv7W1RU90o9ET9xDKxzxKnFVbwv3VviFMCggEAPoX+8+L0gfkNDx42\nzrZ+bYzliQhGCrkRIf8fJO1+k8sN3gjoodOEWonV5oIgnX2HwyhYSENbTIF/LlRx\nwU3jKyeSn7yGOVdy4tiVHeIPSFvsRoF5u5pYcaWZQa00MrH2HAUE5DiH0/BcXTLu\n4hLQYnGaKK28w54tgrbv3pmY1ACLgXhczALxojc4zI5IG7HyTavZLr+ErTDqd68+\ne3brtQDtLvCk52uT19TcMTfR3PYlixZtEY/ayyGnZGj5fgcLNsP3WFoepHD/M2Z9\n+kziXZysyd0pss5EHhkiRophDGzJMglunhBY/m9Q093I2csa8xatX2iBnH9IMp/T\nEi7PdQKCAQAYfyuwwvikTiU2c5ZDoaxmflxMV/QNU6dUtD8Huwr48buBcxIt9hvw\ne914ODjI0SD2RAcSTrHGgOh4gPBt57f/O7rjlkz3g9WtUl4UVwyiAp6F6p6T/UVJ\nOl/a8QXRI1KP3zFveJ6GG1v7InJPU0BdQ+QKJ45nGFzrMLwzMLXCzygBI5/7RevM\nC7eepRCSzBr+UgrhxGr3rnCgSMMuBOb3hceUB9W14QNt0i0Q1SwdUzCmRIt7337d\nCBHjrncWmeI8rAEjhGinE66xw7OU5z5ypROsyfRkP8+f51NJYa1HlCvaP4Y2Uaf0\nt0dq3lKemv1cGRuCxHMkldQilpjcQrxfAoIBAEjHuyZY4aD0rkEYehuwdBoFXUqU\nD8ursSmAi8cMjuc5fJ0hJlfdrvnhIIRPtSDXBnGaZ0xxTzt13ZnpcA3oF3inhuZK\n3+9s+eZU0YBaWirVhKqrAaPeKPoq4pWUj1wzZZlHNHByl1uzn/E/tYt4nVPOe0Ta\n3ZOSI33qJ8YsDxQW7W8JEbxaa4rseicRiBEaqkFuFblV7Dufi0TDo/4PrC0PJygY\nXBz2SC4d+zznLHOL2CEeG7lterzymvPjnDlCXrN7cKC2/hvmZ3kBFQIjrNCBx3m7\n41uFxZGwWKZ6zus9yoetCBohenmR8+xCpAwm2BX3fAac87NoIXUZ8tU2FMc=\n-----END RSA PRIVATE KEY-----\n"
  },
  "gitlab_pages": {
    "admin_secret_token": "9512b46282d0cba30340571cfc614e238db19c2328bdedede1e6fe05d11c7d2df78987bcc05ddb98c05672d586a010b7629d54c7697f7d88f53fc5c335227a8d",
    "gitlab_secret": null,
    "gitlab_id": null,
    "auth_secret": "2fd78334711f1dc1ea15bc2dd6f7aa1d600247ae417ebf4d6d67c85d15a84876054296661d5e6a1ab8cebd06fb9607ecb31503e0be74920167ba3e35969674eb"
  },
  "grafana": {
    "secret_key": "55fe59277d5f2aee3e1d974a1f0e466c"
  },
  "registry": {
    "http_secret": "ac681f5453632d60daaf753a36dae8957939b3e57b1656d863dd814386e4cf96f1e31b0292a25f586543ded3b0528f2c5db50b395c5f70beb1ce3dd92cd391c9",
    "internal_certificate": "-----BEGIN CERTIFICATE-----\nMIIFBTCCAu2gAwIBAgIBADANBgkqhkiG9w0BAQsFADBGMQwwCgYDVQQGEwNVU0Ex\nDzANBgNVBAoMBkdpdExhYjESMBAGA1UECwwJQ29udGFpbmVyMREwDwYDVQQDDAhS\nZWdpc3RyeTAeFw0xOTExMTQxNjMxMDhaFw0yOTExMTExNjMxMDhaMEYxDDAKBgNV\nBAYTA1VTQTEPMA0GA1UECgwGR2l0TGFiMRIwEAYDVQQLDAlDb250YWluZXIxETAP\nBgNVBAMMCFJlZ2lzdHJ5MIICIjANBgkqhkiG9w0BAQEFAAOCAg8AMIICCgKCAgEA\nlzn4lW9cL+KjY5PJ2Gcf8T3S+1aIY09p1j6iAbIYiAp0iaxToe8wE9B+nkInFVTV\nzf5Ruv+hQ6TGkTLeEPwzZvH6bItkk7iKYetFpMFYsCo1FF3lrsx2AYYP08XsvCJo\nisKLG/3NeAY7qlJYbIRRJzE2K4mdTWVOSgBoYXYBR8Fel6CvfST3WKcXBFSyT13A\nCF0oILxLisKhPei9JCwfPLvumZJ5IeezIw8z5AIH15LIBzL/1nEw/t2g0HfBucpa\nSTc41kVvwG3HDy53DLMlxy1WnG7WhLeqkk3wc2zPsqJSgzA8vjca0zDL9/uvP6xG\nK/sfeS/y4NfwYVZIomdBo2Bn75/dXAoVjO+Jc2bAe1girrRCXjmwTPizunbWi3c8\nhbvRDCE2u2m6T7Yyb1YjRzUv5okI3P7A1eb5kYbXc4Hb+pDcbJ0JBaGWKnkvfZz1\nBbiWRcqdxG9QPEZuRxhKHizQsK48RmFtwjTkBzOKLOGH5PH9RXy6wkI8ZHMMty2a\nRXnVrH7ZaWdjzv6R7acOjci1so3lHXfFEjPLqOHpAiVKncKEgKcCI8P3qvbC+g0z\nr/yi4wND6H0pQkq6SjPov2Z4qe+pbmrlYQWspcsQJLavunv8hQl9ooOPa33Cxxdc\nPhCp9TH+AQk4TnxxvJ0J6ncrotkznln+OMCTaCrmQEcCAwEAATANBgkqhkiG9w0B\nAQsFAAOCAgEAGYVD4Ad8h3k6I+Rk37p4Vx7ZJKPZixEKUfP0an4QBAul+996saZy\nQtYhH6i678//M/UC/4XjviuG2Gq2s2Yf6gvYQjIUgqec07VtzAt62xR6lhkx3ZB1\neWxHrCI9ICCS6RRAqhSABTtFgn6kzY3NsxOPxdvZ3VNU4uXPdmln06M5vOP/nuOQ\nEuK3WFSH7ZOVi5h6u6JP73uaTejNQ1hKc8z6uIt6HmJTPGd2YQQjCcZYEJqHBOd+\n7IRmC1ilZR0xyef9McgwrlNLbINcOjWm720g6xuhbFvcds/BBKhLnK8bC71jHZ4N\nXGa9K40DG3HwjwpDAbJG2RSf/NNyj49wXax86BKWX3Q/gWUZCZQVwNrUwu6efyOL\no+t4QolH8kmkM/EuAcDPtrP7ovnS9TAflbXWErHMO2+VLk35mf42YGdjLgKt7qO1\nTpVYpu1vsaVORj8fbrKUQA9EfqWYXtXcubpxWT8jYYHlcrGKwtkyWsyw2QBohjkJ\ngagBOW6g2ujO5BjQpLb1rFkoFT6xFVNRjo/iMA9Qi3vOU3OQzjuMQWgFRyTobJFv\nHAlU0WTevmPdw3sQ/elkgiXnrXCExaBiekdad9tSKP33tF5fKBDfuQJzXqmBbzrw\nwOacURsN9uXTu74hPBLMuJ9psQDawpNZyeRQ0JrvDlz6VHz6/tufgzQ=\n-----END CERTIFICATE-----\n",
    "internal_key": "-----BEGIN RSA PRIVATE KEY-----\nMIIJKAIBAAKCAgEAlzn4lW9cL+KjY5PJ2Gcf8T3S+1aIY09p1j6iAbIYiAp0iaxT\noe8wE9B+nkInFVTVzf5Ruv+hQ6TGkTLeEPwzZvH6bItkk7iKYetFpMFYsCo1FF3l\nrsx2AYYP08XsvCJoisKLG/3NeAY7qlJYbIRRJzE2K4mdTWVOSgBoYXYBR8Fel6Cv\nfST3WKcXBFSyT13ACF0oILxLisKhPei9JCwfPLvumZJ5IeezIw8z5AIH15LIBzL/\n1nEw/t2g0HfBucpaSTc41kVvwG3HDy53DLMlxy1WnG7WhLeqkk3wc2zPsqJSgzA8\nvjca0zDL9/uvP6xGK/sfeS/y4NfwYVZIomdBo2Bn75/dXAoVjO+Jc2bAe1girrRC\nXjmwTPizunbWi3c8hbvRDCE2u2m6T7Yyb1YjRzUv5okI3P7A1eb5kYbXc4Hb+pDc\nbJ0JBaGWKnkvfZz1BbiWRcqdxG9QPEZuRxhKHizQsK48RmFtwjTkBzOKLOGH5PH9\nRXy6wkI8ZHMMty2aRXnVrH7ZaWdjzv6R7acOjci1so3lHXfFEjPLqOHpAiVKncKE\ngKcCI8P3qvbC+g0zr/yi4wND6H0pQkq6SjPov2Z4qe+pbmrlYQWspcsQJLavunv8\nhQl9ooOPa33CxxdcPhCp9TH+AQk4TnxxvJ0J6ncrotkznln+OMCTaCrmQEcCAwEA\nAQKCAgA9a8Q1HYe5wzlNZmcix6/Hka6xepHmlAiOhd3TBnzENErk5+MH8Ff8lD/5\nEzFAjrZP9i1H4C+lg7VKn/hluak+9KUblPoCrX83ChG9OvJEisAIR6LT/iMnt0WS\nY98lAmynfyB0+/6J8y4knVFgsdUsL+aqhDgpiS3lDIlYnE8kz7sVpqPgFjWIAkVs\n8uGBLriiLQPxV8ju0OIgfPjlSi5dwo7EPSOJy8uMP855mwGIYwtvMR2MAWk++tEo\nGpvKVA+bkRw6mvUqmOuylNKxi8maPiXhX3staFOVHKa+msE48ojE08C4GTWB9V3C\nmKyzFctibZp45Cqne80cG6lgnMOhcdvlzwC3Gm7lETQM9t85Wg8NptTXzTJF4Lz1\n0XutO4CIFTzs0CWxzRjm+v7tPVpoXogbC1Ulz+Ue6kzRgfXtFaNQ//gg+VwR1rSO\nBCrO2DYHDN1ViepadQWRNNVbrMGn+OiB2QA40FWbsfbscFodgzELWh5UqC4Xqrlv\nebChUAB49/KVmHNhLpZW0TqL3l6wuUBL1Y8XFxdgXNWItiTauEv5mFtRbSoeyh40\ncu7QTlc+FC56bTKdIuUN5GG+h9jvOM6u3C1hus/NGwjMAYRc6FiBsEGwUGkMNwZm\n9XaGjUu+jQANGK1Q5bfetLUBc33gF+l6AhzUQPtvnOuZ2PapgQKCAQEAx4tYSR7U\nqBb4B/7vomUssxAnmGbNfHmM/GE0UC+kZBsNrQGJkBnsAlxtCNeMHJGzr5tMmzeb\nSLXoaUZf0M4LDfOIF2fYNwBH/MBh6Ona/TdNW/LwYs5oXCDc9Bp2Eu/CntyV3D7Z\ndKSwgUhFiS7OBQAz9wnQeOP/VaJel8Y11XHAYSkTWrd86uHwTbn6jpFkoKS1ESfg\nIb4EvBLLy8ueMCDPXdRSOHAkAgXioK4fvhI/8pmYIawaBWy5ehmXyKn2SOT7TU7N\nyGiVcJKkZ9EziDHjtiqJLwLO+Hx1iYMZ/vogMWHB8E5tLuQRWY7n5FG+a8igFewy\nPvoFevQJNBid5wKCAQEAwgMLmzxEh55Lp/8si9KorAgV/P/zvefWU7zjiHyPLZ6n\nr6oARvTSJZNva+EvUPZBZeo4hx6NMuhzWopv1T3VNlUje5RirkVqgJelqgUXfJcV\nfVptvsDy8R6T8epnOgtaICyXS5zi43PMtZpZNOH/k9DlGKJCHS7+i5G2HcA8Da6Z\nNlbLeC438ixMc1ELErGauJu95bwZNfVI3ReU5m9mkAS409u7UwyaouifBw0vbrz8\n50Xqa5hIwAA8A70n9/SHH1QEZS8eWn64NGNvXvjdUvx2m+6jfIW+8RdTyMNcCkzh\n8puGmGTLqcWz3ng1kMZLa0I3OIwgZeHl+10Fjcs+oQKCAQAWPfD8TYR0rAK/mWoK\nlu5xkyZmtWbILiBJ7WfQXE8dnWpb02UK++izpqu8pZIHiTIXK99RGdSkOSqLuX1q\nn9zZlECiI0AVeWGMycDgHlj7ipOD4UNsMAev5TXbu6tXlwQBgyLtJtBEUSsfbffa\nP65VHl2sdpqXLwrB99RFZKGRhhlkexieLv+sirynXUiRZaFqypEoNWKlQDH06L9w\nmuSqBq42jjkP82gAFbnaIS6GmDAqkXZEopNP8XuHIZ0qj89U9rkQN+12HjoyDxZm\nQApXbwAryPf7lnuNdQoA5u0Z37WA652bdJJ0/JT2f5hXeckY6Ib3iplbLbE4sETq\nWqgXAoIBADKwnwCxL2qLplK/bgEeSimgdzZCHYn5n9sDGCPZ/4K42DEiZq4jWyCs\nM8lo7Xbm0FFzb8+F4PhzGWiHkQ6S+DkY54trSpkj097DQGp6qBdKVjgJP3E+cnsj\nNR5Y0x2sR6DuZZ1A4VryL4MnT7Vsct1JEAJuqn17gNAwgvek+UvN2YQEC2dcFAv3\nHQZoH0+EDdu7/VKf4apiauYxOhs28gIg6bWYzIm3WlPEGYC7JjB1ulImx0fTYvaf\nWQ7VBjNXtVIvHnLda73TLAesDzYuKY18HvVA1YA8ZZYSNTbYLB0Y11QO5Iy+kSPL\nXuJ6X+xyktP0Wf8xRWm5KuCQ/ll8x+ECggEBAKrcwfDeWZ3sbzYn0bZizldmVdTw\nhG0x97MDzgIsAiIwB7MMFB5otu58xhKsFMuc8w6Hvs6JGbbwxl2vWB4fQC0i7psY\nX8nBGErT4sTAIltW6q9lrk2RJvHKvRTH0M4abchdAWKoIZp5+oRQDFs1ZfvV46pc\n7GUnIu4HgFk/HBF3FUoiOtIZPWVJKM3Z1+DwEP0hVOcnYpg1z2W7x3Xuqs0NKHCi\nQwnVAxeBgy/0O7tSpgSOCht3f9R+WzkGRXxw9Kuok94UEVjX4at+3m2MR4gxr/EO\ncar2i/Vjx8QONli5qsiaDRvrnuQ+5aVQNXL7JBo3x+ugxmyRu4NW+iL8Sws=\n-----END RSA PRIVATE KEY-----\n"
  },
  "letsencrypt": {
    "auto_enabled": null
  },
  "mattermost": {
    "email_invite_salt": "b7d50f98612d90fabc4256bd0ca0db38",
    "file_public_link_salt": "79dbf39f5f1dc226496b0c165d9c1d49",
    "sql_at_rest_encrypt_key": "d09d45501d83c827221e17bddd5e0e40"
  },
  "postgresql": {
    "internal_certificate": "-----BEGIN CERTIFICATE-----\nMIIFBzCCAu+gAwIBAgIBADANBgkqhkiG9w0BAQsFADBHMQwwCgYDVQQGEwNVU0Ex\nDzANBgNVBAoMBkdpdExhYjERMA8GA1UECwwIRGF0YWJhc2UxEzARBgNVBAMMClBv\nc3RncmVTUUwwHhcNMTkxMTE0MTYzMTA5WhcNMjkxMTExMTYzMTA5WjBHMQwwCgYD\nVQQGEwNVU0ExDzANBgNVBAoMBkdpdExhYjERMA8GA1UECwwIRGF0YWJhc2UxEzAR\nBgNVBAMMClBvc3RncmVTUUwwggIiMA0GCSqGSIb3DQEBAQUAA4ICDwAwggIKAoIC\nAQDOql8Qel8dZB+4Vu2QMbWBt+ntUIhOrNf1xi2yTYznuLvKQWUGn6z3Br0P0DRU\nIrsFNsBIHRI7UAnAeYdZeYW1qg4F8nnKeQdBOQ4YFg94kfoj66Ml8eCYWci7R3oO\nIXpUwB16+iULeJmwqOw9COGY+pMO8r+HQvCzpo6q3STzFCsMgR9InQLuCyrsoSki\nwXiZYdpkSMeHw8jejkO86cCHqEXtO2yLD0HN1BOlyZlhvt/0UcLA6iITXZ/5exrx\nYIGQIuGcWQIfxCMpy/U6745077JrulkuiW6fxRfqmAp79UpR2w8NgteMk5IWf4Qt\nF9/YtGk+2gcsxwQn7UZTQUcciyDc/JeYLgtYi+W5RICdeEaSzZ2kgbWROuUINE1v\nOmJiLyNjsaV1c1yXeB/KMJGfDowIh0qjiwfKwSLqTBfcHg0M9HtcGT/4zggFYoUi\nAbN1U9ZM0MPXsBXKUG3IKrqtJiOXc+6zPqX6oBVMKtqj1MzrPHUplphEBEvZdMyH\nIQ8YxCwhBWaDRmawNsMPQtLCRLHqdra+ba04WLRuLv3tIhtlq1nTgGFB4r0EONeB\nHAloC+Haka3ZqCY0LdYpoGOGxDKBEtblkUujZZ/L2eA44ZBTukIc9POqhJxBIJP1\nSMvF+OgVSwL2VkgGOIQpKzG7csKZ52gMD7/D77pScN1BtwIDAQABMA0GCSqGSIb3\nDQEBCwUAA4ICAQB6SdjcCfo9fDhZHpYAEOaOcT93ARht7Kh/X69eLLvrCxdUX8CG\n1eGxxSxRsqbfsGlNVlO3G9I8z/yMV24VM07i7o2fuST5tj1zPH6IKXV0f8MpJoKd\n6rK/H6ZA5fB6NOv7gsPtidPHmo82U/GKwVRPJgCLDvqUpp6nRsSlBgQ77idmq0Jl\nvvB12+kS79MpXT2rADLZLxdXtOWdBA7cVYF+Rqi0XLC4MyTVrtJpQXl/An/K2pI2\nesdtKGX0HyPmO/B+5mUdJSfRfDBP3cdza+/57aRsXA/y5sKRU0xPxkqpCiAPAGz7\ncIP4VWAidFJ3zNQ+wU6iNwu0zaPlieAyb7fdtFyKCmRFU1fQDpyTczy+60sVycuQ\nMuGm07t9LBDJxvJu94hhhNUWYBDbWCQJgUz+92ecXSgXm28kxdZDZU+7oypoLrts\nvH/b8pWfsqpfapUU4lYz1SFQ405kO4dPiPvQ4W9CIZwA5DEI50eHIMHXG3Wnp2QO\nvUjalH9y/lmsW8mGZFLyjpJVUOVMaX0f4r9KDJosr8WFIsOJyM0LrzHRfUlmZfga\nXwrRZf88uodVb6RS/clNMSkYG56g23U15KfMNd95fKMH9i/07HQKNbmlL5XWTJDi\npduGJOd3flbsFPpGlC6UxzHbZXKWCNWOaLTF9nghPnHtl5qMJ92d4rJqhw==\n-----END CERTIFICATE-----\n",
    "internal_key": "-----BEGIN RSA PRIVATE KEY-----\nMIIJKAIBAAKCAgEAzqpfEHpfHWQfuFbtkDG1gbfp7VCITqzX9cYtsk2M57i7ykFl\nBp+s9wa9D9A0VCK7BTbASB0SO1AJwHmHWXmFtaoOBfJ5ynkHQTkOGBYPeJH6I+uj\nJfHgmFnIu0d6DiF6VMAdevolC3iZsKjsPQjhmPqTDvK/h0Lws6aOqt0k8xQrDIEf\nSJ0C7gsq7KEpIsF4mWHaZEjHh8PI3o5DvOnAh6hF7Ttsiw9BzdQTpcmZYb7f9FHC\nwOoiE12f+Xsa8WCBkCLhnFkCH8QjKcv1Ou+OdO+ya7pZLolun8UX6pgKe/VKUdsP\nDYLXjJOSFn+ELRff2LRpPtoHLMcEJ+1GU0FHHIsg3PyXmC4LWIvluUSAnXhGks2d\npIG1kTrlCDRNbzpiYi8jY7GldXNcl3gfyjCRnw6MCIdKo4sHysEi6kwX3B4NDPR7\nXBk/+M4IBWKFIgGzdVPWTNDD17AVylBtyCq6rSYjl3Pusz6l+qAVTCrao9TM6zx1\nKZaYRARL2XTMhyEPGMQsIQVmg0ZmsDbDD0LSwkSx6na2vm2tOFi0bi797SIbZatZ\n04BhQeK9BDjXgRwJaAvh2pGt2agmNC3WKaBjhsQygRLW5ZFLo2Wfy9ngOOGQU7pC\nHPTzqoScQSCT9UjLxfjoFUsC9lZIBjiEKSsxu3LCmedoDA+/w++6UnDdQbcCAwEA\nAQKCAgEAzAEICGcTvxqX6Ur+BOnc5yjaJSXq9+bM49L2Rt0gq5kC3tuA03IJtmuT\nc6muDiOeg74RPt5boesXRUVx41P/Nl2grCQ4LzMbgznD/OjB6t4GkzDHAuzqLNns\nOVqMVKidbk2ajEujB9jLtcR6NqGuuGkZg5cCk43ztxNCH85e7AjLmfNYI0DCpKKn\ng6Buz901pAshHv9s30rX3UGIAlKoeAEWzeBr/DVaWsjvgCcqXn+h6TZQTkiQzJcO\nFKJ97Sm7m8Gi/cgrPZpKr7ai48OX1zzJ3me8IyEM73AKdMwTBVwUOgtIp6iyCBWg\nDs9fdXfswqkMfzuP+5aVNqiVVBfLDc7j82PGYc9Uy/RpoEUzLi4XresNXdd81+WM\nKUoPw4Rl61DWsAupY4ijJSDjVAKJoIfJdEp9y3D9c90eesY9fp0i6NWldBk4otmW\nZSMDVu6wdN32iW9lMvu8RMCEW4kR1APDzZ6DAM2+RtrH7/570Dv0AXjThkDZtA/h\np6FrXUxLJ6XgDHpshilYiokwuhQeP8Y/vF3NTPvMnGpNH90xrgbydV3XKxt7IKyx\nBBRU84DUmfc0rqWeLn/RMHb0O6IQJkPcdxKNicH4dpJ/pYii26L3DxvBl01Ke9Um\nwvV1+b6y5a87Ozysp1AS5LQGgPyFCDSfAu/VnANeDMFjKZwEjZECggEBAOpl82D6\nPjPwbnnN13dzcGy0hglwK4kt3ya//qfCkDC+Oas6ScBdUIfAyQYZagW7Grni2pkx\nYU7VDDBFOBPq8pxd8zcLRwCIFy3Q8GbAI3oyNfaRO4/GGF2j2xwDjagienVijzac\n4GCHgP6LVAjrfYI4JtypJSTid/0Ur2NYZ9UcrwwRJwQyRlpVjcXUbVvJpLLt7kcK\n3b3R3OcQvwFlBFPQJbTzU50g6SHH8fpktrNSvR7mvlL8tUsp8T2KMrcA5AOtzV2d\nIIF5pn9vW3RqIDHhHuIjU+cuG2dqb3UqsrTXBoxnd34vpKa3ZBYLd+C7q09MFXjp\nKaIFOAqUfJN8VxkCggEBAOG2IpiMe9jtDMEYlGpl3LS+RV/a0+40ARn5LESmEwm2\n9roz4U1rHOAXMwIkfnKveK/nqJgU7AWDx47n5eu01TxNGg/xe3Ygvds0FWKvaocc\nkEI7ocj++PpepzmaM23ZhbeQpIKZVgpR8oeYwAfFL2rDJ7QNeOfW1ekshYJ+XU58\nUeakhpiyF8Xdovp4RuR/bkkQERsFNQ+ZCNSvTEGIAe1kKrMVSoXfnxW8jl7YcU+I\npZWVq1miB3rf/5ZeIid8WRfz4+nyxfZGpoXKyaEE02rCi3N/vkZlO8swLinEaYiP\nlOdbQU1TlA1hW66NxbGfwbWLV3KElVjs+tkTKWAyiU8CggEAIeJvFnvWdiexsMYC\n+e+kNvK51a9ze7c35SAoLhRAR+uX5prcgoR62cUSymDuJLnxmSGkPDUZPg4qXugC\nvU5fmB80w6ZLs1X5E9R6jEAGYOnVRzmjhJs8dnzzdc9FsSKa1VFUJq7y+MFd8m4t\nzcRNNn/rjkadagGbGujcmd3z1Kj63SG1pDOoW/K2Nf0JehViS8N9iKOXfpNR/c07\n73Ws9HjImqn6UmKpkQqYfnwEtVOmp0rwBIsnoiAEEcNipXXpgGalo3zNcCon2ZA9\nhky5Lry+fC5jOK4/o+mNB0EO6HmVJsLmUUWN5dPpEg7CW6iFkUcMa5g5PoTGnzDr\n+V4mMQKCAQBWJiRyQTyMAX5avTz4l0R0ICNugKFfS64X8cj5ssGVdaYaT+7wk6+D\nwJcRfEhfEaZozWzGD0Y+nJuwacaR/oVc7LjD2RGcdsbAQdLfxcBNLZPKE+SeSONS\n/ImrLLXweZPWCnkf99KlQb3mD2FMFfEROMeQq4u4QYGH7BxRQFXwvPatp6JP6bm1\nJfEs1HeKgzDe5ikBPS2RdIGwW/ApGvZRW2gIzlmRW1bm/v8AKHCnQKqiu2uZXISq\nW5C8HdW/aHDA+a/F/YmdhD3O1yW6NZNULkj3noxLZhw6Y3tbKcJ2Awd8fpIgJ4Rc\nzwolR6trLmTLHBIWfZBbTqg37l5efyt1AoIBADI4ySX6jdTrGinl1oeEFD2qkW2l\niIYuwN7+yKyOUwvvevjvRwyS2zSTy4nrAVxEgNyaabneMStH2Rr+8rlIp4Tncx9u\npnFoYC5dOjJ2ocR71/8D1i3wIiji6haXvZG4gXBYWBrP6WXxMD9K1VdEgVKF8KrK\nNVrwJQYHndLxJQpNBrkReVk+PzntTrB4UlJkDccwOz3XL0a8kJg4DJnW2FznCmVt\nX+KGenEMFFCw/51AMy+5eUrPxERnE2tTd4ijB8hc1P6z0w1cLRYkNqhmqzHi9pV1\n1Uaf54zn9J++z5+3/ENHK5cEmfY4KC9cul6j/kwsKaRiFxrgQaQT0cJDwEM=\n-----END RSA PRIVATE KEY-----\n"
  }
}
